<svg width="40" height="40" viewBox="0 0 40 40" fill="none" xmlns="http://www.w3.org/2000/svg">
<path d="M8.732 30.6667C7.81067 30.6667 7.042 30.3587 6.426 29.7427C5.81 29.1267 5.50133 28.358 5.5 27.4367V8.28266C5.5 7.81866 5.65333 7.43333 5.96 7.12666C6.26667 6.82 6.652 6.66666 7.116 6.66666H33.884C34.3493 6.66666 34.7347 6.82 35.04 7.12666C35.3453 7.43333 35.4987 7.81866 35.5 8.28266V27.4367C35.5 28.3567 35.192 29.1253 34.576 29.7427C33.96 30.36 33.1913 30.668 32.27 30.6667H8.732ZM12.5 22.6667H18.5C18.7853 22.6667 19.0233 22.5713 19.214 22.3807C19.4047 22.19 19.5 21.952 19.5 21.6667V13.6667C19.5 13.3827 19.4047 13.1447 19.214 12.9527C19.0233 12.7607 18.7853 12.6653 18.5 12.6667H12.5C12.216 12.6667 11.978 12.762 11.786 12.9527C11.594 13.1433 11.4987 13.3813 11.5 13.6667V21.6667C11.5 21.952 11.5953 22.19 11.786 22.3807C11.9767 22.5713 12.2147 22.6667 12.5 22.6667ZM23.5 22.6667H27.5C28.0667 22.6667 28.542 22.4747 28.926 22.0907C29.31 21.7067 29.5013 21.232 29.5 20.6667C29.4987 20.1013 29.3067 19.6267 28.924 19.2427C28.5413 18.8587 28.0667 18.6667 27.5 18.6667H23.5C22.9333 18.6667 22.4587 18.8587 22.076 19.2427C21.6933 19.6267 21.5013 20.1013 21.5 20.6667C21.4987 21.232 21.6907 21.7073 22.076 22.0927C22.4613 22.478 22.936 22.6693 23.5 22.6667ZM23.5 16.6667H27.5C28.0667 16.6667 28.542 16.4747 28.926 16.0907C29.31 15.7067 29.5013 15.232 29.5 14.6667C29.4987 14.1013 29.3067 13.6267 28.924 13.2427C28.5413 12.8587 28.0667 12.6667 27.5 12.6667H23.5C22.9333 12.6667 22.4587 12.8587 22.076 13.2427C21.6933 13.6267 21.5013 14.1013 21.5 14.6667C21.4987 15.232 21.6907 15.7073 22.076 16.0927C22.4613 16.478 22.936 16.6693 23.5 16.6667Z" fill="black"/>
</svg>
