<svg width="35" height="35" viewBox="0 0 35 35" fill="none" xmlns="http://www.w3.org/2000/svg">
<path d="M17.5003 32.736V21.7217M17.5003 21.7217C16.9403 21.7217 16.3803 21.8428 15.953 22.084L13.5 24.5364M17.5003 21.7217C17.7878 21.7219 18.0725 21.7532 18.338 21.8155C18.6035 21.8778 18.8446 21.969 19.0476 22.084L21.5 24.5364M4.01074 17.5059H30.9899" stroke="black" stroke-width="1.875" stroke-linecap="round" stroke-linejoin="round"/>
<path d="M17.5003 2.00005V13.0143M17.5003 13.0143C16.9403 13.0143 16.3803 12.8933 15.953 12.6521L13.5 10.1997M17.5003 13.0143C17.7878 13.0142 18.0725 12.9829 18.338 12.9206C18.6035 12.8583 18.8446 12.7671 19.0476 12.6521L21.5 10.1997M4.01074 17.2302H30.9899" stroke="black" stroke-width="1.875" stroke-linecap="round" stroke-linejoin="round"/>
</svg>
