<svg width="70" height="43" viewBox="0 0 70 43" fill="none" xmlns="http://www.w3.org/2000/svg">
<g clip-path="url(#clip0_187_24)">
<path d="M24.4688 8.0625C24.6925 8.0625 24.9071 8.20407 25.0654 8.45608C25.2236 8.70808 25.3125 9.04987 25.3125 9.40625V33.5938C25.3125 33.9501 25.2236 34.2919 25.0654 34.5439C24.9071 34.7959 24.6925 34.9375 24.4688 34.9375H2.53125C2.30747 34.9375 2.09286 34.7959 1.93463 34.5439C1.77639 34.2919 1.6875 33.9501 1.6875 33.5938V9.40625C1.6875 9.04987 1.77639 8.70808 1.93463 8.45608C2.09286 8.20407 2.30747 8.0625 2.53125 8.0625H24.4688ZM2.53125 5.375C1.85992 5.375 1.21609 5.79972 0.741386 6.55573C0.266684 7.31173 0 8.3371 0 9.40625L0 33.5938C0 34.6629 0.266684 35.6883 0.741386 36.4443C1.21609 37.2003 1.85992 37.625 2.53125 37.625H24.4688C25.1401 37.625 25.7839 37.2003 26.2586 36.4443C26.7333 35.6883 27 34.6629 27 33.5938V9.40625C27 8.3371 26.7333 7.31173 26.2586 6.55573C25.7839 5.79972 25.1401 5.375 24.4688 5.375H2.53125Z" fill="#7D7D7D"/>
<path d="M5.0625 14.7812C5.0625 14.4249 5.1514 14.0831 5.30963 13.8311C5.46786 13.5791 5.68247 13.4375 5.90625 13.4375H21.0938C21.3175 13.4375 21.5321 13.5791 21.6904 13.8311C21.8486 14.0831 21.9375 14.4249 21.9375 14.7812C21.9375 15.1376 21.8486 15.4794 21.6904 15.7314C21.5321 15.9834 21.3175 16.125 21.0938 16.125H5.90625C5.68247 16.125 5.46786 15.9834 5.30963 15.7314C5.1514 15.4794 5.0625 15.1376 5.0625 14.7812ZM5.0625 21.5C5.0625 21.1436 5.1514 20.8018 5.30963 20.5498C5.46786 20.2978 5.68247 20.1562 5.90625 20.1562H21.0938C21.3175 20.1562 21.5321 20.2978 21.6904 20.5498C21.8486 20.8018 21.9375 21.1436 21.9375 21.5C21.9375 21.8564 21.8486 22.1982 21.6904 22.4502C21.5321 22.7022 21.3175 22.8438 21.0938 22.8438H5.90625C5.68247 22.8438 5.46786 22.7022 5.30963 22.4502C5.1514 22.1982 5.0625 21.8564 5.0625 21.5ZM5.0625 28.2188C5.0625 27.8624 5.1514 27.5206 5.30963 27.2686C5.46786 27.0166 5.68247 26.875 5.90625 26.875H16.0312C16.255 26.875 16.4696 27.0166 16.6279 27.2686C16.7861 27.5206 16.875 27.8624 16.875 28.2188C16.875 28.5751 16.7861 28.9169 16.6279 29.1689C16.4696 29.4209 16.255 29.5625 16.0312 29.5625H5.90625C5.68247 29.5625 5.46786 29.4209 5.30963 29.1689C5.1514 28.9169 5.0625 28.5751 5.0625 28.2188Z" fill="#7D7D7D"/>
</g>
<g clip-path="url(#clip1_187_24)">
<path d="M44.3801 14.7812C44.3801 15.8504 43.9752 16.8758 43.2543 17.6318C42.5335 18.3878 41.5558 18.8125 40.5364 18.8125C39.517 18.8125 38.5393 18.3878 37.8184 17.6318C37.0976 16.8758 36.6926 15.8504 36.6926 14.7812C36.6926 13.7121 37.0976 12.6867 37.8184 11.9307C38.5393 11.1747 39.517 10.75 40.5364 10.75C41.5558 10.75 42.5335 11.1747 43.2543 11.9307C43.9752 12.6867 44.3801 13.7121 44.3801 14.7812Z" fill="#4D8FDD"/>
<path d="M32.8438 5.375C31.8243 5.375 30.8467 5.79972 30.1258 6.55573C29.405 7.31173 29 8.3371 29 9.40625V33.5938C29 34.6629 29.405 35.6883 30.1258 36.4443C30.8467 37.2003 31.8243 37.625 32.8438 37.625H66.1562C67.1757 37.625 68.1534 37.2003 68.8742 36.4443C69.595 35.6883 70 34.6629 70 33.5938V9.40625C70 8.3371 69.595 7.31173 68.8742 6.55573C68.1534 5.79972 67.1757 5.375 66.1562 5.375H32.8438ZM66.1562 8.0625C66.4961 8.0625 66.8219 8.20407 67.0622 8.45608C67.3025 8.70808 67.4375 9.04987 67.4375 9.40625V25.5312L57.7641 20.2987C57.5238 20.1724 57.2517 20.1286 56.9863 20.1735C56.721 20.2184 56.4758 20.3496 56.2855 20.5486L46.7786 30.5192L39.9624 25.757C39.7163 25.5852 39.4211 25.5079 39.1268 25.5382C38.8326 25.5686 38.5574 25.7048 38.348 25.9236L31.5676 32.25V33.7013L31.5625 33.5938V9.40625C31.5625 9.04987 31.6975 8.70808 31.9378 8.45608C32.1781 8.20407 32.5039 8.0625 32.8438 8.0625H66.1562Z" fill="#4D8FDD"/>
</g>
<defs>
<clipPath id="clip0_187_24">
<rect width="27" height="43" fill="white"/>
</clipPath>
<clipPath id="clip1_187_24">
<rect width="41" height="43" fill="white" transform="translate(29)"/>
</clipPath>
</defs>
</svg>
