<svg width="27" height="27" viewBox="0 0 27 27" fill="none" xmlns="http://www.w3.org/2000/svg">
<path d="M21.5208 13.5C20.9407 13.5 20.3843 13.2695 19.974 12.8593C19.5638 12.4491 19.3333 11.8927 19.3333 11.3125C19.3333 10.7323 19.5638 10.1759 19.974 9.7657C20.3843 9.35547 20.9407 9.125 21.5208 9.125C22.101 9.125 22.6574 9.35547 23.0676 9.7657C23.4779 10.1759 23.7083 10.7323 23.7083 11.3125C23.7083 11.8927 23.4779 12.4491 23.0676 12.8593C22.6574 13.2695 22.101 13.5 21.5208 13.5ZM17.1458 7.66667C16.5657 7.66667 16.0093 7.4362 15.599 7.02596C15.1888 6.61573 14.9583 6.05933 14.9583 5.47917C14.9583 4.89901 15.1888 4.34261 15.599 3.93237C16.0093 3.52213 16.5657 3.29167 17.1458 3.29167C17.726 3.29167 18.2824 3.52213 18.6926 3.93237C19.1029 4.34261 19.3333 4.89901 19.3333 5.47917C19.3333 6.05933 19.1029 6.61573 18.6926 7.02596C18.2824 7.4362 17.726 7.66667 17.1458 7.66667ZM9.85417 7.66667C9.27401 7.66667 8.71761 7.4362 8.30737 7.02596C7.89713 6.61573 7.66667 6.05933 7.66667 5.47917C7.66667 4.89901 7.89713 4.34261 8.30737 3.93237C8.71761 3.52213 9.27401 3.29167 9.85417 3.29167C10.4343 3.29167 10.9907 3.52213 11.401 3.93237C11.8112 4.34261 12.0417 4.89901 12.0417 5.47917C12.0417 6.05933 11.8112 6.61573 11.401 7.02596C10.9907 7.4362 10.4343 7.66667 9.85417 7.66667ZM5.47917 13.5C4.89901 13.5 4.34261 13.2695 3.93237 12.8593C3.52213 12.4491 3.29167 11.8927 3.29167 11.3125C3.29167 10.7323 3.52213 10.1759 3.93237 9.7657C4.34261 9.35547 4.89901 9.125 5.47917 9.125C6.05933 9.125 6.61573 9.35547 7.02596 9.7657C7.4362 10.1759 7.66667 10.7323 7.66667 11.3125C7.66667 11.8927 7.4362 12.4491 7.02596 12.8593C6.61573 13.2695 6.05933 13.5 5.47917 13.5ZM13.5 0.375C10.019 0.375 6.68064 1.75781 4.21922 4.21922C1.75781 6.68064 0.375 10.019 0.375 13.5C0.375 16.981 1.75781 20.3194 4.21922 22.7808C6.68064 25.2422 10.019 26.625 13.5 26.625C14.0802 26.625 14.6366 26.3945 15.0468 25.9843C15.457 25.5741 15.6875 25.0177 15.6875 24.4375C15.6875 23.8688 15.4688 23.3583 15.1187 22.9792C14.7833 22.5854 14.5646 22.075 14.5646 21.5208C14.5646 20.9407 14.7951 20.3843 15.2053 19.974C15.6155 19.5638 16.1719 19.3333 16.7521 19.3333H19.3333C21.2672 19.3333 23.1219 18.5651 24.4893 17.1977C25.8568 15.8302 26.625 13.9755 26.625 12.0417C26.625 5.59583 20.7479 0.375 13.5 0.375Z" fill="white"/>
</svg>
